MRR	ACC	N	EPOCHS	DATA	0SHOT
0.38	0.00	720	10	../data/analogies/1955_1985/	mozart,brahms,beethoven.txt
0.00	0.00	150	10	../data/analogies/1955_1985/	jodenvervolging,deportatie,deportaties.txt
0.00	0.00	540	1	../data/analogies/1955_1985/	waterstofbom,waterstofbommen,atoombom,atoombommen.txt
0.00	0.00	160	1	../data/analogies/1955_1985/	neger,negers,negerin,kleurling.txt
0.00	0.00	160	2	../data/analogies/1955_1985/	neger,negers,negerin,kleurling.txt
0.63	0.00	540	0	../data/analogies/1955_1985/	waterstofbom,waterstofbommen,atoombom,atoombommen.txt
8.62	0.00	720	0	../data/analogies/1955_1985/	mozart,brahms,beethoven.txt
0.00	0.00	160	10	../data/analogies/1955_1985/	neger,negers,negerin,kleurling.txt
0.00	0.00	684	10	../data/analogies/1955_1985/	efficiency,efficiëntie.txt
5.39	1.33	150	1	../data/analogies/1955_1985/	jodenvervolging,deportatie,deportaties.txt
1.23	0.00	684	1	../data/analogies/1955_1985/	efficiency,efficiëntie.txt
0.22	0.00	160	0	../data/analogies/1955_1985/	neger,negers,negerin,kleurling.txt
0.00	0.00	540	2	../data/analogies/1955_1985/	waterstofbom,waterstofbommen,atoombom,atoombommen.txt
0.41	0.00	684	2	../data/analogies/1955_1985/	efficiency,efficiëntie.txt
9.57	0.83	720	1	../data/analogies/1955_1985/	mozart,brahms,beethoven.txt
7.06	0.00	720	2	../data/analogies/1955_1985/	mozart,brahms,beethoven.txt
0.31	0.00	684	0	../data/analogies/1955_1985/	efficiency,efficiëntie.txt
2.84	0.00	150	0	../data/analogies/1955_1985/	jodenvervolging,deportatie,deportaties.txt
0.71	0.00	150	2	../data/analogies/1955_1985/	jodenvervolging,deportatie,deportaties.txt
0.00	0.00	540	10	../data/analogies/1955_1985/	waterstofbom,waterstofbommen,atoombom,atoombommen.txt
