MRR	ACC	N	EPOCHS	DATA
18.75	10.00	30	20	../data/analogies/1955_1985/jodenvervolging,deportatie,deportaties.txt
10.43	5.56	108	20	../data/analogies/1955_1985/waterstofbom,waterstofbommen,atoombom,atoombommen.txt
21.88	21.88	32	20	../data/analogies/1955_1985/neger,negers,negerin,kleurling.txt
16.42	6.94	144	20	../data/analogies/1955_1985/mozart,brahms,beethoven.txt
2.20	0.00	137	20	../data/analogies/1955_1985/efficiency,efficiëntie.txt
