MRR	ACC	N	EPOCHS	DATA
15.37	10.00	30	2	../data/analogies/1955_1985/jodenvervolging,deportatie,deportaties.txt
10.81	5.56	108	10	../data/analogies/1955_1985/waterstofbom,waterstofbommen,atoombom,atoombommen.txt
12.53	6.25	144	10	../data/analogies/1955_1985/mozart,brahms,beethoven.txt
4.48	0.00	30	0	../data/analogies/1955_1985/jodenvervolging,deportatie,deportaties.txt
18.59	6.94	144	1	../data/analogies/1955_1985/mozart,brahms,beethoven.txt
19.10	18.75	32	10	../data/analogies/1955_1985/neger,negers,negerin,kleurling.txt
7.26	5.11	137	3	../data/analogies/1955_1985/efficiency,efficiëntie.txt
5.44	4.38	137	1	../data/analogies/1955_1985/efficiency,efficiëntie.txt
13.14	10.00	30	3	../data/analogies/1955_1985/jodenvervolging,deportatie,deportaties.txt
8.29	0.00	144	0	../data/analogies/1955_1985/mozart,brahms,beethoven.txt
1.09	0.00	32	0	../data/analogies/1955_1985/neger,negers,negerin,kleurling.txt
8.47	4.63	108	3	../data/analogies/1955_1985/waterstofbom,waterstofbommen,atoombom,atoombommen.txt
3.93	0.93	108	2	../data/analogies/1955_1985/waterstofbom,waterstofbommen,atoombom,atoombommen.txt
13.09	10.00	30	1	../data/analogies/1955_1985/jodenvervolging,deportatie,deportaties.txt
23.99	15.62	32	2	../data/analogies/1955_1985/neger,negers,negerin,kleurling.txt
17.97	15.62	32	1	../data/analogies/1955_1985/neger,negers,negerin,kleurling.txt
34.38	18.75	32	3	../data/analogies/1955_1985/neger,negers,negerin,kleurling.txt
18.48	10.00	30	10	../data/analogies/1955_1985/jodenvervolging,deportatie,deportaties.txt
0.56	0.00	137	0	../data/analogies/1955_1985/efficiency,efficiëntie.txt
16.74	6.94	144	2	../data/analogies/1955_1985/mozart,brahms,beethoven.txt
19.02	6.94	144	3	../data/analogies/1955_1985/mozart,brahms,beethoven.txt
0.93	0.00	108	0	../data/analogies/1955_1985/waterstofbom,waterstofbommen,atoombom,atoombommen.txt
2.17	0.00	137	2	../data/analogies/1955_1985/efficiency,efficiëntie.txt
6.33	5.11	137	10	../data/analogies/1955_1985/efficiency,efficiëntie.txt
7.00	4.63	108	1	../data/analogies/1955_1985/waterstofbom,waterstofbommen,atoombom,atoombommen.txt
