MRR	ACC	N	EPOCHS	DATA	0SHOT
31.94	16.67	12	20	../data/analogies/1955_1985/jodenvervolging,deportatie,deportaties.txt
20.30	9.52	42	10	../data/analogies/1955_1985/waterstofbom,waterstofbommen,atoombom,atoombommen.txt
42.31	23.08	13	10	../data/analogies/1955_1985/neger,negers,negerin,kleurling.txt
41.03	23.08	13	20	../data/analogies/1955_1985/neger,negers,negerin,kleurling.txt
45.00	25.00	12	10	../data/analogies/1955_1985/jodenvervolging,deportatie,deportaties.txt
20.10	7.69	117	20	../data/analogies/1955_1985/mozart,brahms,beethoven.txt
15.12	8.54	82	20	../data/analogies/1955_1985/efficiency,efficiëntie.txt
21.79	7.69	117	10	../data/analogies/1955_1985/mozart,brahms,beethoven.txt
16.02	9.52	42	20	../data/analogies/1955_1985/waterstofbom,waterstofbommen,atoombom,atoombommen.txt
9.51	8.54	82	10	../data/analogies/1955_1985/efficiency,efficiëntie.txt
