MRR	ACC	N	EPOCHS	DATA	0SHOT
33.47	16.67	12	20	../data/analogies/1955_1985/jodenvervolging,deportatie,deportaties.txt
17.13	9.52	42	10	../data/analogies/1955_1985/waterstofbom,waterstofbommen,atoombom,atoombommen.txt
40.38	23.08	13	10	../data/analogies/1955_1985/neger,negers,negerin,kleurling.txt
30.77	23.08	13	20	../data/analogies/1955_1985/neger,negers,negerin,kleurling.txt
41.25	16.67	12	10	../data/analogies/1955_1985/jodenvervolging,deportatie,deportaties.txt
14.62	7.69	117	20	../data/analogies/1955_1985/mozart,brahms,beethoven.txt
7.32	7.32	82	20	../data/analogies/1955_1985/efficiency,efficiëntie.txt
21.62	7.69	117	10	../data/analogies/1955_1985/mozart,brahms,beethoven.txt
12.25	7.14	42	20	../data/analogies/1955_1985/waterstofbom,waterstofbommen,atoombom,atoombommen.txt
11.18	7.32	82	10	../data/analogies/1955_1985/efficiency,efficiëntie.txt
